%YAML 1.1
%TAG !u! tag:unity3d.com,2011:
--- !u!21 &2100000
Material:
  serializedVersion: 6
  m_ObjectHideFlags: 0
  m_CorrespondingSourceObject: {fileID: 0}
  m_PrefabInstance: {fileID: 0}
  m_PrefabAsset: {fileID: 0}
  m_Name: "Pipe 90\xBA Inversa"
  m_Shader: {fileID: 4800000, guid: a65440e8d8824644eb82297e5e18a280, type: 3}
  m_ShaderKeywords: _DETAIL_MAP _MASK_MAP _NORMAL_MAP _RECEIVE_SHADOWS _SHADOWS_ON
  m_LightmapFlags: 0
  m_EnableInstancingVariants: 1
  m_DoubleSidedGI: 0
  m_CustomRenderQueue: -1
  stringTagMap: {}
  disabledShaderPasses: []
  m_SavedProperties:
    serializedVersion: 3
    m_TexEnvs:
    - _BaseMap:
        m_Texture: {fileID: 2800000, guid: fc7c8cb623156ec46a3e4d4de4e95168, type: 3}
        m_Scale: {x: 1, y: 1}
        m_Offset: {x: 0, y: 0}
    - _BumpMap:
        m_Texture: {fileID: 0}
        m_Scale: {x: 1, y: 1}
        m_Offset: {x: 0, y: 0}
    - _DetailAlbedoMap:
        m_Texture: {fileID: 0}
        m_Scale: {x: 1, y: 1}
        m_Offset: {x: 0, y: 0}
    - _DetailMap:
        m_Texture: {fileID: 2800000, guid: fc7c8cb623156ec46a3e4d4de4e95168, type: 3}
        m_Scale: {x: 1, y: 1}
        m_Offset: {x: 0, y: 0}
    - _DetailMask:
        m_Texture: {fileID: 0}
        m_Scale: {x: 1, y: 1}
        m_Offset: {x: 0, y: 0}
    - _DetailNormalMap:
        m_Texture: {fileID: 2800000, guid: 1cc67c0b2d5f8674bbbe387c405fd3d6, type: 3}
        m_Scale: {x: 1, y: 1}
        m_Offset: {x: 0, y: 0}
    - _EmissionMap:
        m_Texture: {fileID: 2800000, guid: 24c842fa05a0ab149b4d611f49c45a94, type: 3}
        m_Scale: {x: 1, y: 1}
        m_Offset: {x: 0, y: 0}
    - _MainTex:
        m_Texture: {fileID: 2800000, guid: fc7c8cb623156ec46a3e4d4de4e95168, type: 3}
        m_Scale: {x: 1, y: 1}
        m_Offset: {x: 0, y: 0}
    - _MaskMap:
        m_Texture: {fileID: 2800000, guid: 623c79edfaa53f74e91bbaf66db1cd65, type: 3}
        m_Scale: {x: 1, y: 1}
        m_Offset: {x: 0, y: 0}
    - _MetallicGlossMap:
        m_Texture: {fileID: 0}
        m_Scale: {x: 1, y: 1}
        m_Offset: {x: 0, y: 0}
    - _NormalMap:
        m_Texture: {fileID: 2800000, guid: 1cc67c0b2d5f8674bbbe387c405fd3d6, type: 3}
        m_Scale: {x: 1, y: 1}
        m_Offset: {x: 0, y: 0}
    - _OcclusionMap:
        m_Texture: {fileID: 0}
        m_Scale: {x: 1, y: 1}
        m_Offset: {x: 0, y: 0}
    - _ParallaxMap:
        m_Texture: {fileID: 0}
        m_Scale: {x: 1, y: 1}
        m_Offset: {x: 0, y: 0}
    m_Floats:
    - _BumpScale: 1
    - _Clipping: 0
    - _Cutoff: 0
    - _DetailAlbedo: 0.534
    - _DetailMapToggle: 1
    - _DetailNormalMapScale: 1
    - _DetailNormalScale: 0.448
    - _DetailSmoothness: 0.233
    - _DstBlend: 0
    - _EmissionTime: 1
    - _Fresnel: 0
    - _GlossMapScale: 1
    - _Glossiness: 0.5
    - _GlossyReflections: 1
    - _MaskMapToggle: 1
    - _Metallic: 0.9
    - _Mode: 0
    - _NormalMapToggle: 1
    - _NormalScale: 1
    - _Occlusion: 0.25
    - _OcclusionStrength: 1
    - _Parallax: 0.02
    - _PremulAlpha: 0
    - _ReceiveShadows: 1
    - _Shadows: 0
    - _Smoothness: 0.78
    - _SmoothnessTextureChannel: 0
    - _SpecularHighlights: 1
    - _SrcBlend: 1
    - _UVSec: 0
    - _ZWrite: 1
    m_Colors:
    - _BaseColor: {r: 0.8627451, g: 0.8627451, b: 0.8627451, a: 1}
    - _Color: {r: 0.8627451, g: 0.8627451, b: 0.8627451, a: 1}
    - _EmissionColor: {r: 5.2164755, g: 0.38235945, b: 0, a: 1}
  m_BuildTextureStacks: []
