%YAML 1.1
%TAG !u! tag:unity3d.com,2011:
--- !u!21 &2100000
Material:
  serializedVersion: 6
  m_ObjectHideFlags: 0
  m_CorrespondingSourceObject: {fileID: 0}
  m_PrefabInstance: {fileID: 0}
  m_PrefabAsset: {fileID: 0}
  m_Name: Sunshaft 1
  m_Shader: {fileID: 4800000, guid: 0124d9a583f2b124f857b4ea933a9779, type: 3}
  m_ShaderKeywords: _PREMULTIPLY_ALPHA _SHADOWS_OFF
  m_LightmapFlags: 4
  m_EnableInstancingVariants: 0
  m_DoubleSidedGI: 0
  m_CustomRenderQueue: 3000
  stringTagMap: {}
  disabledShaderPasses:
  - SHADOWCASTER
  m_SavedProperties:
    serializedVersion: 3
    m_TexEnvs:
    - _BaseMap:
        m_Texture: {fileID: 0}
        m_Scale: {x: 1, y: 1}
        m_Offset: {x: 0, y: 0}
    - _BumpMap:
        m_Texture: {fileID: 0}
        m_Scale: {x: 1, y: 1}
        m_Offset: {x: 0, y: 0}
    - _DetailAlbedoMap:
        m_Texture: {fileID: 0}
        m_Scale: {x: 1, y: 1}
        m_Offset: {x: 0, y: 0}
    - _DetailMap:
        m_Texture: {fileID: 0}
        m_Scale: {x: 1, y: 1}
        m_Offset: {x: 0, y: 0}
    - _DetailMask:
        m_Texture: {fileID: 0}
        m_Scale: {x: 1, y: 1}
        m_Offset: {x: 0, y: 0}
    - _DetailNormalMap:
        m_Texture: {fileID: 0}
        m_Scale: {x: 1, y: 1}
        m_Offset: {x: 0, y: 0}
    - _EmissionMap:
        m_Texture: {fileID: 0}
        m_Scale: {x: 1, y: 1}
        m_Offset: {x: 0, y: 0}
    - _MainTex:
        m_Texture: {fileID: 0}
        m_Scale: {x: 1, y: 1}
        m_Offset: {x: 0, y: 0}
    - _MaskMap:
        m_Texture: {fileID: 0}
        m_Scale: {x: 1, y: 1}
        m_Offset: {x: 0, y: 0}
    - _MetallicGlossMap:
        m_Texture: {fileID: 0}
        m_Scale: {x: 1, y: 1}
        m_Offset: {x: 0, y: 0}
    - _NormalMap:
        m_Texture: {fileID: 0}
        m_Scale: {x: 1, y: 1}
        m_Offset: {x: 0, y: 0}
    - _OcclusionMap:
        m_Texture: {fileID: 0}
        m_Scale: {x: 1, y: 1}
        m_Offset: {x: 0, y: 0}
    - _ParallaxMap:
        m_Texture: {fileID: 0}
        m_Scale: {x: 1, y: 1}
        m_Offset: {x: 0, y: 0}
    m_Floats:
    - _BumpScale: 1
    - _Clipping: 0
    - _Cutoff: 0.5
    - _DepthPower: 1.8
    - _DepthStrength: -0.1
    - _DetailAlbedo: 1
    - _DetailMapToggle: 0
    - _DetailNormalMapScale: 1
    - _DetailNormalScale: 1
    - _DetailSmoothness: 1
    - _DstBlend: 10
    - _Fresnel: 0.48
    - _GlossMapScale: 1
    - _Glossiness: 0.5
    - _GlossyReflections: 1
    - _MaskMapToggle: 0
    - _Metallic: 0
    - _Mode: 0
    - _NormalMapToggle: 0
    - _NormalScale: 1
    - _Occlusion: 1
    - _OcclusionStrength: 1
    - _Parallax: 0.02
    - _PremulAlpha: 1
    - _RayStrength: 0.015
    - _ReceiveShadows: 0
    - _Shadows: 3
    - _Smoothness: 0.5
    - _SmoothnessTextureChannel: 0
    - _SpecularHighlights: 1
    - _SrcBlend: 1
    - _UVSec: 0
    - _ZWrite: 0
    m_Colors:
    - _BaseColor: {r: 0.11792451, g: 1, b: 0.82786304, a: 1}
    - _Color: {r: 0.11792451, g: 1, b: 0.82786304, a: 1}
    - _EmissionColor: {r: 0, g: 0, b: 0, a: 1}
    - _NoiseScaleAndOffset: {r: 2.78, g: 0.01, b: 5.39, a: -0.66}
    - _NoiseSpeed: {r: 0, g: 0, b: 0, a: 0}
    - _ShaftColor: {r: 0.99257153, g: 1.2442094, b: 1.3350786, a: 1}
  m_BuildTextureStacks: []
