%YAML 1.1
%TAG !u! tag:unity3d.com,2011:
--- !u!1 &1415321384243459630
GameObject:
  m_ObjectHideFlags: 0
  m_CorrespondingSourceObject: {fileID: 0}
  m_PrefabInstance: {fileID: 0}
  m_PrefabAsset: {fileID: 0}
  serializedVersion: 6
  m_Component:
  - component: {fileID: 7209200632494374773}
  m_Layer: 0
  m_Name: L1S3
  m_TagString: Untagged
  m_Icon: {fileID: 0}
  m_NavMeshLayer: 0
  m_StaticEditorFlags: 4294967295
  m_IsActive: 1
--- !u!4 &7209200632494374773
Transform:
  m_ObjectHideFlags: 0
  m_CorrespondingSourceObject: {fileID: 0}
  m_PrefabInstance: {fileID: 0}
  m_PrefabAsset: {fileID: 0}
  m_GameObject: {fileID: 1415321384243459630}
  m_LocalRotation: {x: 0, y: 0, z: 0.7071068, w: 0.7071068}
  m_LocalPosition: {x: -165.166, y: 34, z: 0}
  m_LocalScale: {x: 1, y: 1, z: 1}
  m_Children:
  - {fileID: 7711637008297548265}
  - {fileID: 4129440965192037884}
  m_Father: {fileID: 0}
  m_RootOrder: 0
  m_LocalEulerAnglesHint: {x: 0, y: 0, z: 90}
--- !u!1001 &159841009098440704
PrefabInstance:
  m_ObjectHideFlags: 0
  serializedVersion: 2
  m_Modification:
    m_TransformParent: {fileID: 7209200632494374773}
    m_Modifications:
    - target: {fileID: 3868620364946838066, guid: 18d18e6337f46da4f847b715380acd94, type: 3}
      propertyPath: m_Name
      value: GameDesign
      objectReference: {fileID: 0}
    - target: {fileID: 7580371318681278953, guid: 18d18e6337f46da4f847b715380acd94, type: 3}
      propertyPath: m_RootOrder
      value: 0
      objectReference: {fileID: 0}
    - target: {fileID: 7580371318681278953, guid: 18d18e6337f46da4f847b715380acd94, type: 3}
      propertyPath: m_LocalPosition.x
      value: 0
      objectReference: {fileID: 0}
    - target: {fileID: 7580371318681278953, guid: 18d18e6337f46da4f847b715380acd94, type: 3}
      propertyPath: m_LocalPosition.y
      value: 0
      objectReference: {fileID: 0}
    - target: {fileID: 7580371318681278953, guid: 18d18e6337f46da4f847b715380acd94, type: 3}
      propertyPath: m_LocalPosition.z
      value: 0
      objectReference: {fileID: 0}
    - target: {fileID: 7580371318681278953, guid: 18d18e6337f46da4f847b715380acd94, type: 3}
      propertyPath: m_LocalRotation.w
      value: 1
      objectReference: {fileID: 0}
    - target: {fileID: 7580371318681278953, guid: 18d18e6337f46da4f847b715380acd94, type: 3}
      propertyPath: m_LocalRotation.x
      value: 0
      objectReference: {fileID: 0}
    - target: {fileID: 7580371318681278953, guid: 18d18e6337f46da4f847b715380acd94, type: 3}
      propertyPath: m_LocalRotation.y
      value: 0
      objectReference: {fileID: 0}
    - target: {fileID: 7580371318681278953, guid: 18d18e6337f46da4f847b715380acd94, type: 3}
      propertyPath: m_LocalRotation.z
      value: 0
      objectReference: {fileID: 0}
    - target: {fileID: 7580371318681278953, guid: 18d18e6337f46da4f847b715380acd94, type: 3}
      propertyPath: m_LocalEulerAnglesHint.x
      value: 0
      objectReference: {fileID: 0}
    - target: {fileID: 7580371318681278953, guid: 18d18e6337f46da4f847b715380acd94, type: 3}
      propertyPath: m_LocalEulerAnglesHint.y
      value: 0
      objectReference: {fileID: 0}
    - target: {fileID: 7580371318681278953, guid: 18d18e6337f46da4f847b715380acd94, type: 3}
      propertyPath: m_LocalEulerAnglesHint.z
      value: 0
      objectReference: {fileID: 0}
    m_RemovedComponents: []
  m_SourcePrefab: {fileID: 100100000, guid: 18d18e6337f46da4f847b715380acd94, type: 3}
--- !u!4 &7711637008297548265 stripped
Transform:
  m_CorrespondingSourceObject: {fileID: 7580371318681278953, guid: 18d18e6337f46da4f847b715380acd94, type: 3}
  m_PrefabInstance: {fileID: 159841009098440704}
  m_PrefabAsset: {fileID: 0}
--- !u!1001 &668497492562498286
PrefabInstance:
  m_ObjectHideFlags: 0
  serializedVersion: 2
  m_Modification:
    m_TransformParent: {fileID: 7209200632494374773}
    m_Modifications:
    - target: {fileID: 3461089159003432722, guid: effc1e524d39aec4588df7aa03aa576a, type: 3}
      propertyPath: m_RootOrder
      value: 1
      objectReference: {fileID: 0}
    - target: {fileID: 3461089159003432722, guid: effc1e524d39aec4588df7aa03aa576a, type: 3}
      propertyPath: m_LocalPosition.x
      value: 0
      objectReference: {fileID: 0}
    - target: {fileID: 3461089159003432722, guid: effc1e524d39aec4588df7aa03aa576a, type: 3}
      propertyPath: m_LocalPosition.y
      value: 0
      objectReference: {fileID: 0}
    - target: {fileID: 3461089159003432722, guid: effc1e524d39aec4588df7aa03aa576a, type: 3}
      propertyPath: m_LocalPosition.z
      value: 0
      objectReference: {fileID: 0}
    - target: {fileID: 3461089159003432722, guid: effc1e524d39aec4588df7aa03aa576a, type: 3}
      propertyPath: m_LocalRotation.w
      value: 1
      objectReference: {fileID: 0}
    - target: {fileID: 3461089159003432722, guid: effc1e524d39aec4588df7aa03aa576a, type: 3}
      propertyPath: m_LocalRotation.x
      value: 0
      objectReference: {fileID: 0}
    - target: {fileID: 3461089159003432722, guid: effc1e524d39aec4588df7aa03aa576a, type: 3}
      propertyPath: m_LocalRotation.y
      value: 0
      objectReference: {fileID: 0}
    - target: {fileID: 3461089159003432722, guid: effc1e524d39aec4588df7aa03aa576a, type: 3}
      propertyPath: m_LocalRotation.z
      value: 0
      objectReference: {fileID: 0}
    - target: {fileID: 3461089159003432722, guid: effc1e524d39aec4588df7aa03aa576a, type: 3}
      propertyPath: m_LocalEulerAnglesHint.x
      value: 0
      objectReference: {fileID: 0}
    - target: {fileID: 3461089159003432722, guid: effc1e524d39aec4588df7aa03aa576a, type: 3}
      propertyPath: m_LocalEulerAnglesHint.y
      value: 0
      objectReference: {fileID: 0}
    - target: {fileID: 3461089159003432722, guid: effc1e524d39aec4588df7aa03aa576a, type: 3}
      propertyPath: m_LocalEulerAnglesHint.z
      value: 0
      objectReference: {fileID: 0}
    - target: {fileID: 4946626798919886098, guid: effc1e524d39aec4588df7aa03aa576a, type: 3}
      propertyPath: m_Name
      value: Art
      objectReference: {fileID: 0}
    m_RemovedComponents: []
  m_SourcePrefab: {fileID: 100100000, guid: effc1e524d39aec4588df7aa03aa576a, type: 3}
--- !u!4 &4129440965192037884 stripped
Transform:
  m_CorrespondingSourceObject: {fileID: 3461089159003432722, guid: effc1e524d39aec4588df7aa03aa576a, type: 3}
  m_PrefabInstance: {fileID: 668497492562498286}
  m_PrefabAsset: {fileID: 0}
