%YAML 1.1
%TAG !u! tag:unity3d.com,2011:
--- !u!1 &7157339016738365443
GameObject:
  m_ObjectHideFlags: 0
  m_CorrespondingSourceObject: {fileID: 0}
  m_PrefabInstance: {fileID: 0}
  m_PrefabAsset: {fileID: 0}
  serializedVersion: 6
  m_Component:
  - component: {fileID: 398998107472584179}
  m_Layer: 0
  m_Name: Desague
  m_TagString: Untagged
  m_Icon: {fileID: 0}
  m_NavMeshLayer: 0
  m_StaticEditorFlags: 4294967295
  m_IsActive: 1
--- !u!4 &398998107472584179
Transform:
  m_ObjectHideFlags: 0
  m_CorrespondingSourceObject: {fileID: 0}
  m_PrefabInstance: {fileID: 0}
  m_PrefabAsset: {fileID: 0}
  m_GameObject: {fileID: 7157339016738365443}
  m_LocalRotation: {x: 0, y: 0, z: 0, w: 1}
  m_LocalPosition: {x: 0, y: 0, z: 0}
  m_LocalScale: {x: 1, y: 1, z: 1}
  m_Children:
  - {fileID: 7332997825624938091}
  m_Father: {fileID: 0}
  m_RootOrder: 0
  m_LocalEulerAnglesHint: {x: 0, y: 0, z: 0}
--- !u!1001 &7083796999256633728
PrefabInstance:
  m_ObjectHideFlags: 0
  serializedVersion: 2
  m_Modification:
    m_TransformParent: {fileID: 398998107472584179}
    m_Modifications:
    - target: {fileID: -8679921383154817045, guid: 2c73b3d80c45f6c4487e4b7fc7dfcdf6, type: 3}
      propertyPath: m_RootOrder
      value: 0
      objectReference: {fileID: 0}
    - target: {fileID: -8679921383154817045, guid: 2c73b3d80c45f6c4487e4b7fc7dfcdf6, type: 3}
      propertyPath: m_LocalScale.x
      value: 1.9063
      objectReference: {fileID: 0}
    - target: {fileID: -8679921383154817045, guid: 2c73b3d80c45f6c4487e4b7fc7dfcdf6, type: 3}
      propertyPath: m_LocalScale.y
      value: 1.9063
      objectReference: {fileID: 0}
    - target: {fileID: -8679921383154817045, guid: 2c73b3d80c45f6c4487e4b7fc7dfcdf6, type: 3}
      propertyPath: m_LocalScale.z
      value: 1.9063
      objectReference: {fileID: 0}
    - target: {fileID: -8679921383154817045, guid: 2c73b3d80c45f6c4487e4b7fc7dfcdf6, type: 3}
      propertyPath: m_LocalPosition.x
      value: 0
      objectReference: {fileID: 0}
    - target: {fileID: -8679921383154817045, guid: 2c73b3d80c45f6c4487e4b7fc7dfcdf6, type: 3}
      propertyPath: m_LocalPosition.y
      value: 0
      objectReference: {fileID: 0}
    - target: {fileID: -8679921383154817045, guid: 2c73b3d80c45f6c4487e4b7fc7dfcdf6, type: 3}
      propertyPath: m_LocalPosition.z
      value: 0
      objectReference: {fileID: 0}
    - target: {fileID: -8679921383154817045, guid: 2c73b3d80c45f6c4487e4b7fc7dfcdf6, type: 3}
      propertyPath: m_LocalRotation.w
      value: 1
      objectReference: {fileID: 0}
    - target: {fileID: -8679921383154817045, guid: 2c73b3d80c45f6c4487e4b7fc7dfcdf6, type: 3}
      propertyPath: m_LocalRotation.x
      value: -0
      objectReference: {fileID: 0}
    - target: {fileID: -8679921383154817045, guid: 2c73b3d80c45f6c4487e4b7fc7dfcdf6, type: 3}
      propertyPath: m_LocalRotation.y
      value: -0
      objectReference: {fileID: 0}
    - target: {fileID: -8679921383154817045, guid: 2c73b3d80c45f6c4487e4b7fc7dfcdf6, type: 3}
      propertyPath: m_LocalRotation.z
      value: -0
      objectReference: {fileID: 0}
    - target: {fileID: -8679921383154817045, guid: 2c73b3d80c45f6c4487e4b7fc7dfcdf6, type: 3}
      propertyPath: m_LocalEulerAnglesHint.x
      value: 0
      objectReference: {fileID: 0}
    - target: {fileID: -8679921383154817045, guid: 2c73b3d80c45f6c4487e4b7fc7dfcdf6, type: 3}
      propertyPath: m_LocalEulerAnglesHint.y
      value: 0
      objectReference: {fileID: 0}
    - target: {fileID: -8679921383154817045, guid: 2c73b3d80c45f6c4487e4b7fc7dfcdf6, type: 3}
      propertyPath: m_LocalEulerAnglesHint.z
      value: 0
      objectReference: {fileID: 0}
    - target: {fileID: -4317606253078093490, guid: 2c73b3d80c45f6c4487e4b7fc7dfcdf6, type: 3}
      propertyPath: m_Materials.Array.data[0]
      value: 
      objectReference: {fileID: 2100000, guid: a1f45442c222d0b47bda2a95b4279c56, type: 2}
    - target: {fileID: -2225832600620360116, guid: 2c73b3d80c45f6c4487e4b7fc7dfcdf6, type: 3}
      propertyPath: m_StaticEditorFlags
      value: 4294967295
      objectReference: {fileID: 0}
    - target: {fileID: 919132149155446097, guid: 2c73b3d80c45f6c4487e4b7fc7dfcdf6, type: 3}
      propertyPath: m_Name
      value: Desague
      objectReference: {fileID: 0}
    - target: {fileID: 919132149155446097, guid: 2c73b3d80c45f6c4487e4b7fc7dfcdf6, type: 3}
      propertyPath: m_StaticEditorFlags
      value: 4294967295
      objectReference: {fileID: 0}
    m_RemovedComponents: []
  m_SourcePrefab: {fileID: 100100000, guid: 2c73b3d80c45f6c4487e4b7fc7dfcdf6, type: 3}
--- !u!4 &7332997825624938091 stripped
Transform:
  m_CorrespondingSourceObject: {fileID: -8679921383154817045, guid: 2c73b3d80c45f6c4487e4b7fc7dfcdf6, type: 3}
  m_PrefabInstance: {fileID: 7083796999256633728}
  m_PrefabAsset: {fileID: 0}
