%YAML 1.1
%TAG !u! tag:unity3d.com,2011:
--- !u!1 &5407274547756291978
GameObject:
  m_ObjectHideFlags: 0
  m_CorrespondingSourceObject: {fileID: 0}
  m_PrefabInstance: {fileID: 0}
  m_PrefabAsset: {fileID: 0}
  serializedVersion: 6
  m_Component:
  - component: {fileID: 7349841548728438775}
  m_Layer: 0
  m_Name: Pasarela_90
  m_TagString: Untagged
  m_Icon: {fileID: 0}
  m_NavMeshLayer: 0
  m_StaticEditorFlags: 0
  m_IsActive: 1
--- !u!4 &7349841548728438775
Transform:
  m_ObjectHideFlags: 0
  m_CorrespondingSourceObject: {fileID: 0}
  m_PrefabInstance: {fileID: 0}
  m_PrefabAsset: {fileID: 0}
  m_GameObject: {fileID: 5407274547756291978}
  m_LocalRotation: {x: 0, y: 0, z: 0, w: 1}
  m_LocalPosition: {x: 0, y: 0, z: 0}
  m_LocalScale: {x: 1, y: 1, z: 1}
  m_Children:
  - {fileID: 6382851197119166367}
  m_Father: {fileID: 0}
  m_RootOrder: 0
  m_LocalEulerAnglesHint: {x: 0, y: 0, z: 0}
--- !u!1001 &6854135748116582516
PrefabInstance:
  m_ObjectHideFlags: 0
  serializedVersion: 2
  m_Modification:
    m_TransformParent: {fileID: 7349841548728438775}
    m_Modifications:
    - target: {fileID: -8679921383154817045, guid: ace2c00d52fdb4242aacdaa0e2e8342d, type: 3}
      propertyPath: m_RootOrder
      value: 0
      objectReference: {fileID: 0}
    - target: {fileID: -8679921383154817045, guid: ace2c00d52fdb4242aacdaa0e2e8342d, type: 3}
      propertyPath: m_LocalPosition.x
      value: 0
      objectReference: {fileID: 0}
    - target: {fileID: -8679921383154817045, guid: ace2c00d52fdb4242aacdaa0e2e8342d, type: 3}
      propertyPath: m_LocalPosition.y
      value: 0
      objectReference: {fileID: 0}
    - target: {fileID: -8679921383154817045, guid: ace2c00d52fdb4242aacdaa0e2e8342d, type: 3}
      propertyPath: m_LocalPosition.z
      value: 0
      objectReference: {fileID: 0}
    - target: {fileID: -8679921383154817045, guid: ace2c00d52fdb4242aacdaa0e2e8342d, type: 3}
      propertyPath: m_LocalRotation.w
      value: 1
      objectReference: {fileID: 0}
    - target: {fileID: -8679921383154817045, guid: ace2c00d52fdb4242aacdaa0e2e8342d, type: 3}
      propertyPath: m_LocalRotation.x
      value: -0
      objectReference: {fileID: 0}
    - target: {fileID: -8679921383154817045, guid: ace2c00d52fdb4242aacdaa0e2e8342d, type: 3}
      propertyPath: m_LocalRotation.y
      value: -0
      objectReference: {fileID: 0}
    - target: {fileID: -8679921383154817045, guid: ace2c00d52fdb4242aacdaa0e2e8342d, type: 3}
      propertyPath: m_LocalRotation.z
      value: -0
      objectReference: {fileID: 0}
    - target: {fileID: -8679921383154817045, guid: ace2c00d52fdb4242aacdaa0e2e8342d, type: 3}
      propertyPath: m_LocalEulerAnglesHint.x
      value: 0
      objectReference: {fileID: 0}
    - target: {fileID: -8679921383154817045, guid: ace2c00d52fdb4242aacdaa0e2e8342d, type: 3}
      propertyPath: m_LocalEulerAnglesHint.y
      value: 0
      objectReference: {fileID: 0}
    - target: {fileID: -8679921383154817045, guid: ace2c00d52fdb4242aacdaa0e2e8342d, type: 3}
      propertyPath: m_LocalEulerAnglesHint.z
      value: 0
      objectReference: {fileID: 0}
    - target: {fileID: -7635826562936255635, guid: ace2c00d52fdb4242aacdaa0e2e8342d, type: 3}
      propertyPath: m_Materials.Array.data[0]
      value: 
      objectReference: {fileID: 2100000, guid: 91c009ebbe8eaad4caedaf5df0c54dcd, type: 2}
    - target: {fileID: 919132149155446097, guid: ace2c00d52fdb4242aacdaa0e2e8342d, type: 3}
      propertyPath: m_Name
      value: Pasarela_90
      objectReference: {fileID: 0}
    m_RemovedComponents: []
  m_SourcePrefab: {fileID: 100100000, guid: ace2c00d52fdb4242aacdaa0e2e8342d, type: 3}
--- !u!4 &6382851197119166367 stripped
Transform:
  m_CorrespondingSourceObject: {fileID: -8679921383154817045, guid: ace2c00d52fdb4242aacdaa0e2e8342d, type: 3}
  m_PrefabInstance: {fileID: 6854135748116582516}
  m_PrefabAsset: {fileID: 0}
