%YAML 1.1
%TAG !u! tag:unity3d.com,2011:
--- !u!21 &2100000
Material:
  serializedVersion: 6
  m_ObjectHideFlags: 0
  m_CorrespondingSourceObject: {fileID: 0}
  m_PrefabInstance: {fileID: 0}
  m_PrefabAsset: {fileID: 0}
  m_Name: Sala2Pared_mat
  m_Shader: {fileID: 4800000, guid: 9e1d15a02b3ac6d4fb404f37188549df, type: 3}
  m_ShaderKeywords: _NORMAL_MAP _RECEIVE_SHADOWS _SHADOWS_ON
  m_LightmapFlags: 4
  m_EnableInstancingVariants: 0
  m_DoubleSidedGI: 0
  m_CustomRenderQueue: -1
  stringTagMap: {}
  disabledShaderPasses: []
  m_SavedProperties:
    serializedVersion: 3
    m_TexEnvs:
    - _BaseMapFront:
        m_Texture: {fileID: 2800000, guid: 36ad534ee04f34446a0e00fdc66e86f7, type: 3}
        m_Scale: {x: 0.25, y: 0.25}
        m_Offset: {x: 0, y: 0}
    - _BaseMapLeft:
        m_Texture: {fileID: 2800000, guid: 36ad534ee04f34446a0e00fdc66e86f7, type: 3}
        m_Scale: {x: 0.25, y: 0.25}
        m_Offset: {x: 0, y: 0}
    - _BaseMapTop:
        m_Texture: {fileID: 2800000, guid: 36ad534ee04f34446a0e00fdc66e86f7, type: 3}
        m_Scale: {x: 0.25, y: 0.25}
        m_Offset: {x: 0, y: 0}
    - _BumpMap:
        m_Texture: {fileID: 0}
        m_Scale: {x: 1, y: 1}
        m_Offset: {x: 0, y: 0}
    - _DetailAlbedoMap:
        m_Texture: {fileID: 0}
        m_Scale: {x: 1, y: 1}
        m_Offset: {x: 0, y: 0}
    - _DetailMask:
        m_Texture: {fileID: 0}
        m_Scale: {x: 1, y: 1}
        m_Offset: {x: 0, y: 0}
    - _DetailNormalMap:
        m_Texture: {fileID: 0}
        m_Scale: {x: 1, y: 1}
        m_Offset: {x: 0, y: 0}
    - _EmissionMap:
        m_Texture: {fileID: 0}
        m_Scale: {x: 1, y: 1}
        m_Offset: {x: 0, y: 0}
    - _EmissionMapFront:
        m_Texture: {fileID: 2800000, guid: 2b96fb60c369efe4ea03a1da332bab89, type: 3}
        m_Scale: {x: 1, y: 1}
        m_Offset: {x: 0, y: 0}
    - _EmissionMapLeft:
        m_Texture: {fileID: 2800000, guid: 2b96fb60c369efe4ea03a1da332bab89, type: 3}
        m_Scale: {x: 1, y: 1}
        m_Offset: {x: 0, y: 0}
    - _EmissionMapTop:
        m_Texture: {fileID: 2800000, guid: 2b96fb60c369efe4ea03a1da332bab89, type: 3}
        m_Scale: {x: 1, y: 1}
        m_Offset: {x: 0, y: 0}
    - _MainTex:
        m_Texture: {fileID: 0}
        m_Scale: {x: 1, y: 1}
        m_Offset: {x: 0, y: 0}
    - _MaskMapFront:
        m_Texture: {fileID: 2800000, guid: 9815d60a720e11c4abbde7a4e704cf96, type: 3}
        m_Scale: {x: 1, y: 1}
        m_Offset: {x: 0, y: 0}
    - _MaskMapLeft:
        m_Texture: {fileID: 2800000, guid: 9815d60a720e11c4abbde7a4e704cf96, type: 3}
        m_Scale: {x: 1, y: 1}
        m_Offset: {x: 0, y: 0}
    - _MaskMapTop:
        m_Texture: {fileID: 2800000, guid: 9815d60a720e11c4abbde7a4e704cf96, type: 3}
        m_Scale: {x: 1, y: 1}
        m_Offset: {x: 0, y: 0}
    - _MetallicGlossMap:
        m_Texture: {fileID: 0}
        m_Scale: {x: 1, y: 1}
        m_Offset: {x: 0, y: 0}
    - _NormalMapFront:
        m_Texture: {fileID: 2800000, guid: 53c6f118bf01e944296ea184eba5ff24, type: 3}
        m_Scale: {x: 1, y: 1}
        m_Offset: {x: 0, y: 0}
    - _NormalMapLeft:
        m_Texture: {fileID: 2800000, guid: 53c6f118bf01e944296ea184eba5ff24, type: 3}
        m_Scale: {x: 1, y: 1}
        m_Offset: {x: 0, y: 0}
    - _NormalMapTop:
        m_Texture: {fileID: 2800000, guid: 53c6f118bf01e944296ea184eba5ff24, type: 3}
        m_Scale: {x: 1, y: 1}
        m_Offset: {x: 0, y: 0}
    - _OcclusionMap:
        m_Texture: {fileID: 0}
        m_Scale: {x: 1, y: 1}
        m_Offset: {x: 0, y: 0}
    - _ParallaxMap:
        m_Texture: {fileID: 0}
        m_Scale: {x: 1, y: 1}
        m_Offset: {x: 0, y: 0}
    m_Floats:
    - _BlendSharpness: 1
    - _BumpScale: 1
    - _Clipping: 0
    - _Cutoff: 0.5
    - _DetailNormalMapScale: 1
    - _DstBlend: 0
    - _EmissionTime: 0
    - _FresnelFront: 0.514
    - _FresnelLeft: 0.508
    - _FresnelTop: 0.496
    - _GlossMapScale: 1
    - _Glossiness: 0.5
    - _GlossyReflections: 1
    - _MaskMapToggle: 0
    - _Metallic: 0
    - _MetallicFront: 1
    - _MetallicLeft: 1
    - _MetallicTop: 1
    - _Mode: 0
    - _NormalMapToggle: 1
    - _NormalScaleFront: 1
    - _NormalScaleLeft: 1
    - _NormalScaleTop: 1
    - _OcclusionFront: 1
    - _OcclusionLeft: 1
    - _OcclusionStrength: 1
    - _OcclusionTop: 1
    - _Parallax: 0.02
    - _PremulAlpha: 0
    - _ReceiveShadows: 1
    - _Shadows: 0
    - _SmoothnessFront: 0.5
    - _SmoothnessLeft: 0.5
    - _SmoothnessTextureChannel: 0
    - _SmoothnessTop: 0.5
    - _SpecularHighlights: 1
    - _SrcBlend: 1
    - _UVSec: 0
    - _ZWrite: 1
    m_Colors:
    - _BaseColorFront: {r: 0.5, g: 0.5, b: 0.5, a: 1}
    - _BaseColorLeft: {r: 0.5, g: 0.5, b: 0.5, a: 1}
    - _BaseColorTop: {r: 0.5, g: 0.5, b: 0.5, a: 1}
    - _Color: {r: 1, g: 1, b: 1, a: 1}
    - _EmissionColor: {r: 0, g: 0, b: 0, a: 1}
    - _EmissionColorFront: {r: 0, g: 0, b: 0, a: 1}
    - _EmissionColorLeft: {r: 0, g: 0, b: 0, a: 1}
    - _EmissionColorTop: {r: 0, g: 0, b: 0, a: 1}
  m_BuildTextureStacks: []
