%YAML 1.1
%TAG !u! tag:unity3d.com,2011:
--- !u!21 &2100000
Material:
  serializedVersion: 6
  m_ObjectHideFlags: 0
  m_CorrespondingSourceObject: {fileID: 0}
  m_PrefabInstance: {fileID: 0}
  m_PrefabAsset: {fileID: 0}
  m_Name: Custom RP_LitFloor
  m_Shader: {fileID: 4800000, guid: 500d5d64e3cee7548ade9e166194c0e9, type: 3}
  m_ShaderKeywords: _RECEIVE_SHADOWS
  m_LightmapFlags: 4
  m_EnableInstancingVariants: 1
  m_DoubleSidedGI: 0
  m_CustomRenderQueue: 2000
  stringTagMap: {}
  disabledShaderPasses: []
  m_SavedProperties:
    serializedVersion: 3
    m_TexEnvs:
    - _BaseMap:
        m_Texture: {fileID: 2800000, guid: abec8d42281748b4c829fecdfb598b61, type: 3}
        m_Scale: {x: 1, y: 1}
        m_Offset: {x: 0, y: 0}
    - _EmissionMap:
        m_Texture: {fileID: 0}
        m_Scale: {x: 1, y: 1}
        m_Offset: {x: 0, y: 0}
    - _MainTex:
        m_Texture: {fileID: 0}
        m_Scale: {x: 1, y: 1}
        m_Offset: {x: 0, y: 0}
    - _MaskMap:
        m_Texture: {fileID: 0}
        m_Scale: {x: 1, y: 1}
        m_Offset: {x: 0, y: 0}
    - _NormalMap:
        m_Texture: {fileID: 0}
        m_Scale: {x: 1, y: 1}
        m_Offset: {x: 0, y: 0}
    m_Floats:
    - _Clipping: 0
    - _Cutoff: 0.5
    - _DstBlend: 0
    - _Fresnel: 1
    - _MaskMapToggle: 0
    - _Metallic: 0.065
    - _NormalMapToggle: 0
    - _NormalScale: 1
    - _Occlusion: 1
    - _PremulAlpha: 0
    - _ReceiveShadows: 1
    - _Shadows: 0
    - _Smoothness: 0.981
    - _SrcBlend: 1
    - _ZWrite: 1
    m_Colors:
    - _BaseColor: {r: 1, g: 1, b: 1, a: 1}
    - _Color: {r: 0.9716981, g: 0.32542717, b: 0.32542717, a: 1}
    - _EmissionColor: {r: 0, g: 0, b: 0, a: 0}
  m_BuildTextureStacks: []
