%YAML 1.1
%TAG !u! tag:unity3d.com,2011:
--- !u!21 &2100000
Material:
  serializedVersion: 6
  m_ObjectHideFlags: 0
  m_CorrespondingSourceObject: {fileID: 0}
  m_PrefabInstance: {fileID: 0}
  m_PrefabAsset: {fileID: 0}
  m_Name: Full Triplanar
  m_Shader: {fileID: 4800000, guid: 77019cce7e0d29a47920d9b7cdb7ac07, type: 3}
  m_ShaderKeywords: _MASK_MAP _NORMAL_MAP _RECEIVE_SHADOWS _SHADOWS_ON
  m_LightmapFlags: 0
  m_EnableInstancingVariants: 1
  m_DoubleSidedGI: 0
  m_CustomRenderQueue: -1
  stringTagMap: {}
  disabledShaderPasses: []
  m_SavedProperties:
    serializedVersion: 3
    m_TexEnvs:
    - _BaseMap:
        m_Texture: {fileID: 2800000, guid: ee01897ab70744178bd3927a6ed5ac6c, type: 3}
        m_Scale: {x: 1, y: 1}
        m_Offset: {x: 0, y: 0}
    - _BaseMapFront:
        m_Texture: {fileID: 2800000, guid: 5722750c62081d24f960b9c19419840b, type: 3}
        m_Scale: {x: 0.1, y: 0.1}
        m_Offset: {x: 0, y: 0}
    - _BaseMapLeft:
        m_Texture: {fileID: 2800000, guid: 2fd673e59a2ef96488f716cb0f0d7ba5, type: 3}
        m_Scale: {x: 0.2, y: 0.2}
        m_Offset: {x: 0, y: 0}
    - _BaseMapTop:
        m_Texture: {fileID: 2800000, guid: 88d29eae232036c4b9421309c1c58b2c, type: 3}
        m_Scale: {x: 0.5, y: 0.5}
        m_Offset: {x: 0, y: 0}
    - _BumpMap:
        m_Texture: {fileID: 0}
        m_Scale: {x: 1, y: 1}
        m_Offset: {x: 0, y: 0}
    - _DetailAlbedoMap:
        m_Texture: {fileID: 0}
        m_Scale: {x: 1, y: 1}
        m_Offset: {x: 0, y: 0}
    - _DetailMask:
        m_Texture: {fileID: 0}
        m_Scale: {x: 1, y: 1}
        m_Offset: {x: 0, y: 0}
    - _DetailNormalMap:
        m_Texture: {fileID: 0}
        m_Scale: {x: 1, y: 1}
        m_Offset: {x: 0, y: 0}
    - _EmissionMap:
        m_Texture: {fileID: 2800000, guid: 7e59121567ee04a25960e760eb8cf237, type: 3}
        m_Scale: {x: 1, y: 1}
        m_Offset: {x: 0, y: 0}
    - _EmissionMapFront:
        m_Texture: {fileID: 0}
        m_Scale: {x: 1, y: 1}
        m_Offset: {x: 0, y: 0}
    - _EmissionMapLeft:
        m_Texture: {fileID: 0}
        m_Scale: {x: 1, y: 1}
        m_Offset: {x: 0, y: 0}
    - _EmissionMapTop:
        m_Texture: {fileID: 0}
        m_Scale: {x: 1, y: 1}
        m_Offset: {x: 0, y: 0}
    - _MainTex:
        m_Texture: {fileID: 2800000, guid: ee01897ab70744178bd3927a6ed5ac6c, type: 3}
        m_Scale: {x: 1, y: 1}
        m_Offset: {x: 0, y: 0}
    - _MaskMap:
        m_Texture: {fileID: 2800000, guid: 5034062f403f46f44b1bf1e95884e2cc, type: 3}
        m_Scale: {x: 1, y: 1}
        m_Offset: {x: 0, y: 0}
    - _MaskMapFront:
        m_Texture: {fileID: 2800000, guid: 03a89efdeaa79bc4782e2f97c94ce23b, type: 3}
        m_Scale: {x: 1, y: 1}
        m_Offset: {x: 0, y: 0}
    - _MaskMapLeft:
        m_Texture: {fileID: 2800000, guid: fcbdf1059fb2a16458b6f49fef171730, type: 3}
        m_Scale: {x: 1, y: 1}
        m_Offset: {x: 0, y: 0}
    - _MaskMapTop:
        m_Texture: {fileID: 2800000, guid: 2d4108c9ee242e34f88b77a073704c98, type: 3}
        m_Scale: {x: 1, y: 1}
        m_Offset: {x: 0, y: 0}
    - _MetallicGlossMap:
        m_Texture: {fileID: 0}
        m_Scale: {x: 1, y: 1}
        m_Offset: {x: 0, y: 0}
    - _NormalMap:
        m_Texture: {fileID: 2800000, guid: c58bced94b1424768befc366eb286b71, type: 3}
        m_Scale: {x: 1, y: 1}
        m_Offset: {x: 0, y: 0}
    - _NormalMapFront:
        m_Texture: {fileID: 2800000, guid: 2ded15f0c3664c541b867ebf4b4dfa04, type: 3}
        m_Scale: {x: 1, y: 1}
        m_Offset: {x: 0, y: 0}
    - _NormalMapLeft:
        m_Texture: {fileID: 2800000, guid: 10ebbdb4d797ffa4ab25802b436ee57d, type: 3}
        m_Scale: {x: 1, y: 1}
        m_Offset: {x: 0, y: 0}
    - _NormalMapTop:
        m_Texture: {fileID: 2800000, guid: 5453e3453240f3149992786e1d025573, type: 3}
        m_Scale: {x: 1, y: 1}
        m_Offset: {x: 0, y: 0}
    - _OcclusionMap:
        m_Texture: {fileID: 0}
        m_Scale: {x: 1, y: 1}
        m_Offset: {x: 0, y: 0}
    - _ParallaxMap:
        m_Texture: {fileID: 0}
        m_Scale: {x: 1, y: 1}
        m_Offset: {x: 0, y: 0}
    m_Floats:
    - _BlendSharpness: 5.6
    - _BumpScale: 1
    - _Clipping: 0
    - _Cutoff: 0.761
    - _DetailNormalMapScale: 1
    - _DstBlend: 0
    - _Fresnel: 1
    - _FresnelFront: 0.27
    - _FresnelLeft: 0.5
    - _FresnelTop: 1
    - _GlossMapScale: 1
    - _Glossiness: 0.5
    - _GlossyReflections: 1
    - _MaskMapToggle: 1
    - _Metallic: 1
    - _MetallicFront: 1
    - _MetallicLeft: 1
    - _MetallicTop: 1
    - _Mode: 0
    - _NameSpaceFront: 0
    - _NameSpaceLeft: 0
    - _NameSpaceTop: 0
    - _NormalMapToggle: 1
    - _NormalScale: 1
    - _NormalScaleFront: 1
    - _NormalScaleLeft: 1
    - _NormalScaleTop: 1
    - _Occlusion: 0
    - _OcclusionFront: 0
    - _OcclusionLeft: 0
    - _OcclusionStrength: 1
    - _OcclusionTop: 0.205
    - _Parallax: 0.02
    - _PremulAlpha: 0
    - _ReceiveShadows: 1
    - _Shadows: 0
    - _Smoothness: 0.6
    - _SmoothnessFront: 0.5
    - _SmoothnessLeft: 0.5
    - _SmoothnessTextureChannel: 0
    - _SmoothnessTop: 0.5
    - _SpecularHighlights: 1
    - _SrcBlend: 1
    - _UVSec: 0
    - _ZWrite: 1
    m_Colors:
    - _BaseColor: {r: 1, g: 1, b: 1, a: 1}
    - _BaseColorFront: {r: 1, g: 1, b: 1, a: 1}
    - _BaseColorLeft: {r: 1, g: 1, b: 1, a: 1}
    - _BaseColorTop: {r: 1, g: 1, b: 1, a: 1}
    - _Color: {r: 1, g: 1, b: 1, a: 1}
    - _EmissionColor: {r: 8, g: 8, b: 8, a: 1}
    - _EmissionColorFront: {r: 0, g: 0, b: 0, a: 0}
    - _EmissionColorLeft: {r: 0, g: 0, b: 0, a: 0}
    - _EmissionColorTop: {r: 0, g: 0, b: 0, a: 0}
  m_BuildTextureStacks: []
